%YAML 1.1
%TAG !u! tag:unity3d.com,2011:
--- !u!1045 &1
EditorBuildSettings:
  m_ObjectHideFlags: 0
  serializedVersion: 2
  m_Scenes:
  - enabled: 1
    path: Assets/Scenes/UI.unity
    guid: a2bf2b056172b3d42b0be45cb8c54609
  - enabled: 1
    path: Assets/Scenes/Main.unity
    guid: 3a75f2f54cc3025409043530e5b927b7
  m_configObjects: {}
